Exploring CD8+ T-cell Specificities using Single Cell Immune Profiling with an Outlook to Reproducible Bio Data Science
…
The data sets contains binding counts between the donors’ library of T-Cell Receptors (TCRs) and a set of peptide-major histocompatibility complexes (pMHCs). The before-mentioned binding counts are so called unique molecular identifier (UMI) counts. For an explanation of all columns see Section 5.1.

In the following sections, each of the functions contained in TCRSequenceFunctions will be explained, demonstrated and reasoned for. Generally, they can be divided into three types: Cleaning, Augmenting and Modelling where the main goal of the two first is to make the data tidy.

Lastly will be a short section on a Shiny Package, TCRSequenceShiny, which utilizes these functions to make a user-friendly interactive interface for data exploration.

2 Tidying the data

The aim of tidying the data is to enable the data handling, and to ensure a reproducible result. Firstly, the data is cleaned e.g. by making sure, all cells only contain one piece of information. After, some augmented was needed to enable the modelling. This was done by e.g. adding new columns. A wrapper function was used to run all the preparation functions: run_all_prep(). This wrapper simply takes one of the raw data files included in the package as input, and pipe it through all the preparation functions, and output a tidy data set as so:

vdj_v1_hs_aggregated_donor4_binarized_matrix %>% 
  run_all_prep()

# A tibble: 190,482 x 27
   barcode      TCR_s~1 TCR_c~2 donor chain   CD3  CD19 CD45RA   CD4  CD8a  CD14
   <chr>        <chr>   <fct>   <chr> <chr> <dbl> <dbl>  <dbl> <dbl> <dbl> <dbl>
 1 AAACCTGAGAA~ CVVSEL~ one_al~ dono~ alpha  1517     4   2473     8  3082     9
 2 AAACCTGAGAA~ CAIRLA~ one_al~ dono~ beta   1517     4   2473     8  3082     9
 3 AAACCTGAGAG~ CALDPT~ one_al~ dono~ alpha   560    14    281    13  3906    19
 4 AAACCTGAGAG~ CALDPT~ one_al~ dono~ alpha   560    14    281    13  3906    19
 5 AAACCTGAGAG~ CALDPT~ one_al~ dono~ alpha   560    14    281    13  3906    19
 6 AAACCTGAGAG~ CALDPT~ one_al~ dono~ alpha   560    14    281    13  3906    19
 7 AAACCTGAGAG~ CASSLQ~ one_al~ dono~ beta    560    14    281    13  3906    19
 8 AAACCTGAGAG~ CASSLQ~ one_al~ dono~ beta    560    14    281    13  3906    19
 9 AAACCTGAGAG~ CASSLQ~ one_al~ dono~ beta    560    14    281    13  3906    19
10 AAACCTGAGAG~ CASSLQ~ one_al~ dono~ beta    560    14    281    13  3906    19
# ... with 190,472 more rows, 16 more variables: CD45RO <dbl>,
#   `CD279_PD-1` <dbl>, IgG1 <dbl>, IgG2a <dbl>, IgG2b <dbl>, CD127 <dbl>,
#   CD197_CCR7 <dbl>, `HLA-DR` <dbl>, non_promiscuous_pair <chr>, pMHC <chr>,
#   allele <chr>, peptide <chr>, peptide_source <chr>, UMI_count <dbl>,
#   max_non_specific_binder <dbl>, is_binder <lgl>, and abbreviated variable
#   names 1: TCR_sequence, 2: TCR_combination
…
